^C:\USERS\STARDESTROYER\SOURCE\REPOS\PICTORE_EDITOR_V0.1\PICTORE_EDITOR_V0.1\DEBUG\PCH.OBJ|C:\USERS\STARDESTROYER\SOURCE\REPOS\PICTORE_EDITOR_V0.1\PICTORE_EDITOR_V0.1\DEBUG\PICTORE_EDITOR_V0.1.OBJ
C:\USERS\STARDESTROYER\SOURCE\REPOS\PICTORE_EDITOR_V0.1\DEBUG\PICTORE_EDITOR_V0.1.EXE
C:\USERS\STARDESTROYER\SOURCE\REPOS\PICTORE_EDITOR_V0.1\DEBUG\PICTORE_EDITOR_V0.1.ILK
C:\USERS\STARDESTROYER\SOURCE\REPOS\PICTORE_EDITOR_V0.1\DEBUG\PICTORE_EDITOR_V0.1.PDB
